{
  "kind": "collectionType",
  "collectionName": "create_payments",
  "info": {
    "name": "createPayment"
  },
  "options": {
    "increments": true,
    "timestamps": true
  },
  "attributes": {
    "note": {
      "type": "string"
    },
    "amount": {
      "type": "biginteger",
      "required": true,
      "default": "1"
    },
    "currency": {
      "type": "enumeration",
      "enum": [
        "INR",
        "USD"
      ],
      "required": true
    },
    "orderId": {
      "type": "string",
      "required": true,
      "unique": true
    },
    "receiptId": {
      "type": "string",
      "required": true
    },
    "amountDue": {
      "type": "biginteger"
    },
    "amountPaid": {
      "type": "biginteger"
    }
  }
}
