{
  "kind": "collectionType",
  "collectionName": "rooms",
  "info": {
    "name": "room"
  },
  "options": {
    "increments": true,
    "timestamps": true
  },
  "attributes": {
    "regularRoom": {
      "model": "room-type",
      "via": "room"
    },
    "premiumRoom": {
      "model": "room-type",
      "via": "room"
    },
    "show": {
      "via": "room",
      "model": "show"
    }
  }
}
