{
  "kind": "collectionType",
  "collectionName": "orders",
  "info": {
    "name": "orders"
  },
  "options": {
    "increments": true,
    "timestamps": true
  },
  "attributes": {
    "userID": {
      "plugin": "users-permissions",
      "model": "user",
      "via": "orders"
    },
    "price": {
      "type": "float"
    },
    "tax": {
      "type": "float"
    },
    "showID": {
      "model": "show"
    },
    "merchandiseID": {
      "model": "merchandise"
    },
    "trasanctionID": {
      "model": "transactions"
    },
    "items": {
      "collection": "merchandise"
    }
  }
}
