{
  "paths": {
    "/orders": {
      "get": {
        "deprecated": false,
        "description": "Find all the orders's records",
        "responses": {
          "200": {
            "description": "Retrieve orders document(s)",
            "content": {
              "application/json": {
                "schema": {
                  "type": "array",
                  "items": {
                    "$ref": "#/components/schemas/Orders"
                  }
                }
              }
            }
          },
          "403": {
            "description": "Forbidden",
            "content": {
              "application/json": {
                "schema": {
                  "$ref": "#/components/schemas/Error"
                }
              }
            }
          },
          "404": {
            "description": "Not found",
            "content": {
              "application/json": {
                "schema": {
                  "$ref": "#/components/schemas/Error"
                }
              }
            }
          },
          "default": {
            "description": "unexpected error",
            "content": {
              "application/json": {
                "schema": {
                  "$ref": "#/components/schemas/Error"
                }
              }
            }
          }
        },
        "summary": "",
        "tags": [
          "Orders"
        ],
        "parameters": [
          {
            "name": "_limit",
            "in": "query",
            "required": false,
            "description": "Maximum number of results possible",
            "schema": {
              "type": "integer"
            },
            "deprecated": false
          },
          {
            "name": "_sort",
            "in": "query",
            "required": false,
            "description": "Sort according to a specific field.",
            "schema": {
              "type": "string"
            },
            "deprecated": false
          },
          {
            "name": "_start",
            "in": "query",
            "required": false,
            "description": "Skip a specific number of entries (especially useful for pagination)",
            "schema": {
              "type": "integer"
            },
            "deprecated": false
          },
          {
            "name": "=",
            "in": "query",
            "required": false,
            "description": "Get entries that matches exactly your input",
            "schema": {
              "type": "string"
            },
            "deprecated": false
          },
          {
            "name": "_ne",
            "in": "query",
            "required": false,
            "description": "Get records that are not equals to something",
            "schema": {
              "type": "string"
            },
            "deprecated": false
          },
          {
            "name": "_lt",
            "in": "query",
            "required": false,
            "description": "Get record that are lower than a value",
            "schema": {
              "type": "string"
            },
            "deprecated": false
          },
          {
            "name": "_lte",
            "in": "query",
            "required": false,
            "description": "Get records that are lower than or equal to a value",
            "schema": {
              "type": "string"
            },
            "deprecated": false
          },
          {
            "name": "_gt",
            "in": "query",
            "required": false,
            "description": "Get records that are greater than a value",
            "schema": {
              "type": "string"
            },
            "deprecated": false
          },
          {
            "name": "_gte",
            "in": "query",
            "required": false,
            "description": "Get records that are greater than  or equal a value",
            "schema": {
              "type": "string"
            },
            "deprecated": false
          },
          {
            "name": "_contains",
            "in": "query",
            "required": false,
            "description": "Get records that contains a value",
            "schema": {
              "type": "string"
            },
            "deprecated": false
          },
          {
            "name": "_containss",
            "in": "query",
            "required": false,
            "description": "Get records that contains (case sensitive) a value",
            "schema": {
              "type": "string"
            },
            "deprecated": false
          },
          {
            "name": "_in",
            "in": "query",
            "required": false,
            "description": "Get records that matches any value in the array of values",
            "schema": {
              "type": "array",
              "items": {
                "type": "string"
              }
            },
            "deprecated": false
          },
          {
            "name": "_nin",
            "in": "query",
            "required": false,
            "description": "Get records that doesn't match any value in the array of values",
            "schema": {
              "type": "array",
              "items": {
                "type": "string"
              }
            },
            "deprecated": false
          }
        ]
      },
      "post": {
        "deprecated": false,
        "description": "Create a new orders record",
        "responses": {
          "200": {
            "description": "Retrieve orders document(s)",
            "content": {
              "application/json": {
                "schema": {
                  "$ref": "#/components/schemas/Orders"
                }
              }
            }
          },
          "403": {
            "description": "Forbidden",
            "content": {
              "application/json": {
                "schema": {
                  "$ref": "#/components/schemas/Error"
                }
              }
            }
          },
          "404": {
            "description": "Not found",
            "content": {
              "application/json": {
                "schema": {
                  "$ref": "#/components/schemas/Error"
                }
              }
            }
          },
          "default": {
            "description": "unexpected error",
            "content": {
              "application/json": {
                "schema": {
                  "$ref": "#/components/schemas/Error"
                }
              }
            }
          }
        },
        "summary": "",
        "tags": [
          "Orders"
        ],
        "requestBody": {
          "description": "",
          "required": true,
          "content": {
            "application/json": {
              "schema": {
                "$ref": "#/components/schemas/NewOrders"
              }
            }
          }
        }
      }
    },
    "/orders/count": {
      "get": {
        "deprecated": false,
        "description": "Retrieve the numver of orders documents",
        "responses": {
          "200": {
            "description": "Retrieve orders document(s)",
            "content": {
              "application/json": {
                "schema": {
                  "properties": {
                    "count": {
                      "type": "integer"
                    }
                  }
                }
              }
            }
          },
          "403": {
            "description": "Forbidden",
            "content": {
              "application/json": {
                "schema": {
                  "$ref": "#/components/schemas/Error"
                }
              }
            }
          },
          "404": {
            "description": "Not found",
            "content": {
              "application/json": {
                "schema": {
                  "$ref": "#/components/schemas/Error"
                }
              }
            }
          },
          "default": {
            "description": "unexpected error",
            "content": {
              "application/json": {
                "schema": {
                  "$ref": "#/components/schemas/Error"
                }
              }
            }
          }
        },
        "summary": "",
        "tags": [
          "Orders"
        ],
        "parameters": []
      }
    },
    "/orders/{id}": {
      "get": {
        "deprecated": false,
        "description": "Find one orders record",
        "responses": {
          "200": {
            "description": "Retrieve orders document(s)",
            "content": {
              "application/json": {
                "schema": {
                  "$ref": "#/components/schemas/Orders"
                }
              }
            }
          },
          "403": {
            "description": "Forbidden",
            "content": {
              "application/json": {
                "schema": {
                  "$ref": "#/components/schemas/Error"
                }
              }
            }
          },
          "404": {
            "description": "Not found",
            "content": {
              "application/json": {
                "schema": {
                  "$ref": "#/components/schemas/Error"
                }
              }
            }
          },
          "default": {
            "description": "unexpected error",
            "content": {
              "application/json": {
                "schema": {
                  "$ref": "#/components/schemas/Error"
                }
              }
            }
          }
        },
        "summary": "",
        "tags": [
          "Orders"
        ],
        "parameters": [
          {
            "name": "id",
            "in": "path",
            "description": "",
            "deprecated": false,
            "required": true,
            "schema": {
              "type": "string"
            }
          }
        ]
      },
      "put": {
        "deprecated": false,
        "description": "Update a single orders record",
        "responses": {
          "200": {
            "description": "Retrieve orders document(s)",
            "content": {
              "application/json": {
                "schema": {
                  "$ref": "#/components/schemas/Orders"
                }
              }
            }
          },
          "403": {
            "description": "Forbidden",
            "content": {
              "application/json": {
                "schema": {
                  "$ref": "#/components/schemas/Error"
                }
              }
            }
          },
          "404": {
            "description": "Not found",
            "content": {
              "application/json": {
                "schema": {
                  "$ref": "#/components/schemas/Error"
                }
              }
            }
          },
          "default": {
            "description": "unexpected error",
            "content": {
              "application/json": {
                "schema": {
                  "$ref": "#/components/schemas/Error"
                }
              }
            }
          }
        },
        "summary": "",
        "tags": [
          "Orders"
        ],
        "requestBody": {
          "description": "",
          "required": true,
          "content": {
            "application/json": {
              "schema": {
                "$ref": "#/components/schemas/NewOrders"
              }
            }
          }
        },
        "parameters": [
          {
            "name": "id",
            "in": "path",
            "description": "",
            "deprecated": false,
            "required": true,
            "schema": {
              "type": "string"
            }
          }
        ]
      },
      "delete": {
        "deprecated": false,
        "description": "Delete a single orders record",
        "responses": {
          "200": {
            "description": "deletes a single orders based on the ID supplied",
            "content": {
              "application/json": {
                "schema": {
                  "type": "integer",
                  "format": "int64"
                }
              }
            }
          },
          "403": {
            "description": "Forbidden",
            "content": {
              "application/json": {
                "schema": {
                  "$ref": "#/components/schemas/Error"
                }
              }
            }
          },
          "404": {
            "description": "Not found",
            "content": {
              "application/json": {
                "schema": {
                  "$ref": "#/components/schemas/Error"
                }
              }
            }
          },
          "default": {
            "description": "unexpected error",
            "content": {
              "application/json": {
                "schema": {
                  "$ref": "#/components/schemas/Error"
                }
              }
            }
          }
        },
        "summary": "",
        "tags": [
          "Orders"
        ],
        "parameters": [
          {
            "name": "id",
            "in": "path",
            "description": "",
            "deprecated": false,
            "required": true,
            "schema": {
              "type": "string"
            }
          }
        ]
      }
    }
  },
  "components": {
    "schemas": {
      "Orders": {
        "required": [
          "id"
        ],
        "properties": {
          "id": {
            "type": "string"
          },
          "userID": {
            "required": [
              "id",
              "username",
              "email"
            ],
            "properties": {
              "id": {
                "type": "string"
              },
              "username": {
                "type": "string"
              },
              "email": {
                "type": "string"
              },
              "provider": {
                "type": "string"
              },
              "password": {
                "type": "string"
              },
              "resetPasswordToken": {
                "type": "string"
              },
              "confirmed": {
                "type": "boolean"
              },
              "blocked": {
                "type": "boolean"
              },
              "role": {
                "type": "string"
              },
              "confirmationToken": {
                "type": "string"
              },
              "firstName": {
                "type": "string"
              },
              "lastName": {
                "type": "string"
              },
              "profilePicture": {
                "type": "string"
              },
              "social": {
                "type": "component"
              },
              "following": {
                "type": "array",
                "items": {
                  "type": "string"
                }
              },
              "followers": {
                "type": "array",
                "items": {
                  "type": "string"
                }
              },
              "financial": {
                "type": "string"
              },
              "artist": {
                "type": "string"
              },
              "orders": {
                "type": "array",
                "items": {
                  "type": "string"
                }
              },
              "comments": {
                "type": "array",
                "items": {
                  "type": "string"
                }
              },
              "show": {
                "type": "string"
              },
              "created_by": {
                "type": "string"
              },
              "updated_by": {
                "type": "string"
              }
            }
          },
          "price": {
            "type": "number"
          },
          "tax": {
            "type": "number"
          },
          "showID": {
            "required": [
              "id"
            ],
            "properties": {
              "id": {
                "type": "string"
              },
              "userID": {
                "type": "string"
              },
              "streamLink": {
                "type": "string"
              },
              "title": {
                "type": "string"
              },
              "description": {
                "type": "string"
              },
              "thumbnail": {
                "type": "string"
              },
              "teaser": {
                "type": "string"
              },
              "showStart": {
                "type": "string"
              },
              "showEnd": {
                "type": "string"
              },
              "hasPremium": {
                "type": "boolean"
              },
              "isPremiumRoomOpen": {
                "type": "boolean"
              },
              "likes": {
                "type": "array",
                "items": {
                  "type": "string"
                }
              },
              "dislikes": {
                "type": "array",
                "items": {
                  "type": "string"
                }
              },
              "comments": {
                "type": "array",
                "items": {
                  "type": "string"
                }
              },
              "ticket": {
                "type": "string"
              },
              "donations": {
                "type": "array",
                "items": {
                  "type": "string"
                }
              },
              "gifts": {
                "type": "array",
                "items": {
                  "type": "string"
                }
              },
              "merchandises": {
                "type": "array",
                "items": {
                  "type": "string"
                }
              },
              "orders": {
                "type": "array",
                "items": {
                  "type": "string"
                }
              },
              "room": {
                "type": "string"
              },
              "created_by": {
                "type": "string"
              },
              "updated_by": {
                "type": "string"
              }
            }
          },
          "merchandiseID": {
            "required": [
              "id"
            ],
            "properties": {
              "id": {
                "type": "string"
              },
              "name": {
                "type": "string"
              },
              "price": {
                "type": "number"
              },
              "description": {
                "type": "string"
              },
              "sizes": {
                "type": "string",
                "enum": [
                  "Small",
                  "Medium",
                  "Large"
                ]
              },
              "images": {
                "type": "array",
                "items": {
                  "type": "string"
                }
              },
              "created_by": {
                "type": "string"
              },
              "updated_by": {
                "type": "string"
              }
            }
          },
          "trasanctionID": {
            "required": [
              "id"
            ],
            "properties": {
              "id": {
                "type": "string"
              },
              "direction": {
                "type": "string"
              },
              "amount": {
                "type": "number"
              },
              "type": {
                "type": "string"
              },
              "created_by": {
                "type": "string"
              },
              "updated_by": {
                "type": "string"
              }
            }
          },
          "items": {
            "type": "array",
            "items": {
              "required": [
                "id"
              ],
              "properties": {
                "id": {
                  "type": "string"
                },
                "name": {
                  "type": "string"
                },
                "price": {
                  "type": "number"
                },
                "description": {
                  "type": "string"
                },
                "sizes": {
                  "type": "string",
                  "enum": [
                    "Small",
                    "Medium",
                    "Large"
                  ]
                },
                "images": {
                  "type": "array",
                  "items": {
                    "type": "string"
                  }
                },
                "created_by": {
                  "type": "string"
                },
                "updated_by": {
                  "type": "string"
                }
              }
            }
          }
        }
      },
      "NewOrders": {
        "properties": {
          "userID": {
            "type": "string"
          },
          "price": {
            "type": "number"
          },
          "tax": {
            "type": "number"
          },
          "showID": {
            "type": "string"
          },
          "merchandiseID": {
            "type": "string"
          },
          "trasanctionID": {
            "type": "string"
          },
          "items": {
            "type": "array",
            "items": {
              "type": "string"
            }
          },
          "created_by": {
            "type": "string"
          },
          "updated_by": {
            "type": "string"
          }
        }
      }
    }
  },
  "tags": [
    {
      "name": "Orders"
    }
  ]
}